
---Downloaded files---
The import files for: Cyber, CCTV, Bodyguard, Hacking were successfully downloaded!
Initial max execution time = 120
Files info:
Site URL = http://localhost/presto
Data file = C:\xampp\htdocs\presto/wp-content/uploads/2020/04/demo-content-import-file_2020-04-23__14-08-41.xml
Widget file = C:\xampp\htdocs\presto/wp-content/uploads/2020/04/demo-widgets-import-file_2020-04-23__14-08-41.json
Customizer file = C:\xampp\htdocs\presto/wp-content/uploads/2020/04/demo-customizer-import-file_2020-04-23__14-08-41.dat
Redux files:
not defined!

------
New AJAX call!


------
New AJAX call!


------
New AJAX call!


------
New AJAX call!


------
New AJAX call!


------
New AJAX call!


------
New AJAX call!


------
New AJAX call!


------
New AJAX call!


------
New AJAX call!


------
New AJAX call!


------
New AJAX call!


------
New AJAX call!


------
New AJAX call!


------
New AJAX call!


------
New AJAX call!


------
New AJAX call!


------
New AJAX call!

